uart_tb.vcd
$date
	Fri Jun 20 05:07:50 2025
$end

$version
	Synopsys VCS version W-2024.09-SP2_Full64
$end

$timescale
	1s
$end

$comment Csum: 1 d3bc9229399a9272 $end


$scope module uart_tb $end
$var reg 1 ! clk $end
$var reg 1 " reset $end
$var reg 1 # start $end
$var reg 8 $ data_tx [7:0] $end
$var wire 8 % data_rx [7:0] $end
$var wire 1 & ready_tx $end
$var wire 1 ' ready $end
$var wire 1 ( tx $end
$var wire 1 ) parity_rx $end
$var wire 1 * rx $end

$scope module uut $end
$var wire 1 + CLK $end
$var wire 1 , RESET $end
$var wire 1 * RX $end
$var wire 1 - START $end
$var wire 8 . DATA_TX [7:0] $end
$var wire 12 / WORK_FR [11:0] $end
$var wire 1 ( TX $end
$var wire 8 % DATA_RX [7:0] $end
$var wire 1 ) PARITY_RX $end
$var wire 1 & READY_TX $end
$var wire 1 ' READY $end

$scope module RX0 $end
$var wire 1 + PCLK $end
$var wire 1 , RESET $end
$var wire 1 * RX_I $end
$var wire 12 / WORK_FR [11:0] $end
$var reg 8 0 DATA_RX_O [7:0] $end
$var reg 1 1 PARITY_RX $end
$var wire 1 ' READY $end
$var reg 4 2 state_rx [3:0] $end
$var reg 4 3 next_state_rx [3:0] $end
$var reg 12 4 COUNTER [11:0] $end
$var reg 4 5 DATA_COUNTER [3:0] $end
$var reg 1 6 AUX $end
$var reg 1 7 PARITY_BIT_RXED $end
$var wire 1 8 CALCULATED_PARITY $end
$upscope $end


$scope module TX0 $end
$var wire 1 + PCLK $end
$var wire 1 , RESET $end
$var wire 8 . DATA_TX_I [7:0] $end
$var wire 12 / WORK_FR [11:0] $end
$var wire 1 - START $end
$var wire 1 ( TX_O $end
$var reg 1 9 READY_TX $end
$var reg 12 : state_tx [11:0] $end
$var reg 12 ; next_state_tx [11:0] $end
$var reg 12 < DELAY_COUNTER [11:0] $end
$upscope $end

$upscope $end

$upscope $end

$enddefinitions $end

#0
$dumpvars
x6
x8
x7
1,
x1
0-
x9
0!
x)
x'
x&
1"
x*
0#
x(
bxxxxxxxxxxxx 4
bxxxx 5
bxxxxxxxx 0
bxxxxxxxx .
bxxxxxxxxxxxx <
bxxxxxxxx %
bxxxxxxxx $
b0000 3
b000000000000 ;
bxxxx 2
bxxxxxxxxxxxx :
b100010110000 /
0+
$end
#5
1!
1+
b0000 2
0'
b000000000000 4
b0000 5
b00000000 0
b00000000 %
08
16
01
0)
07
19
1&
b000000000000 <
b000000000000 :
b000x 3
1(
1*
b0000 3
#10
0!
0+
#15
1!
1+
#20
0!
0+
#25
1!
1+
#30
0!
0+
#35
1!
1+
#40
0!
0+
#45
1!
1+
#50
0!
0+
#55
1!
1+
#60
0!
0+
#65
1!
1+
#70
0!
0+
#75
1!
1+
#80
0!
0+
#85
1!
1+
#90
0!
0+
#95
1!
1+
#100
0"
0,
b10101010 $
b10101010 .
1#
1-
0!
0+
b000000000001 ;
#105
1!
1+
b000000000001 :
09
0&
b000000000001 <
0(
0*
b0001 3
#110
0#
0-
0!
0+
#115
1!
1+
b0001 2
b000000000001 4
b000000000010 <
#120
0!
0+
#125
1!
1+
b000000000010 4
b000000000011 <
#130
0!
0+
#135
1!
1+
b000000000011 4
b000000000100 <
#140
0!
0+
#145
1!
1+
b000000000100 4
b000000000101 <
#150
0!
0+
#155
1!
1+
b000000000101 4
b000000000110 <
#160
0!
0+
#165
1!
1+
b000000000110 4
b000000000111 <
#170
0!
0+
#175
1!
1+
b000000000111 4
b000000001000 <
#180
0!
0+
#185
1!
1+
b000000001000 4
b000000001001 <
#190
0!
0+
#195
1!
1+
b000000001001 4
b000000001010 <
#200
0!
0+
#205
1!
1+
b000000001010 4
b000000001011 <
#210
0!
0+
#215
1!
1+
b000000001011 4
b000000001100 <
#220
0!
0+
#225
1!
1+
b000000001100 4
b000000001101 <
#230
0!
0+
#235
1!
1+
b000000001101 4
b000000001110 <
#240
0!
0+
#245
1!
1+
b000000001110 4
b000000001111 <
#250
0!
0+
#255
1!
1+
b000000001111 4
b000000010000 <
#260
0!
0+
#265
1!
1+
b000000010000 4
b000000010001 <
#270
0!
0+
#275
1!
1+
b000000010001 4
b000000010010 <
#280
0!
0+
#285
1!
1+
b000000010010 4
b000000010011 <
#290
0!
0+
#295
1!
1+
b000000010011 4
b000000010100 <
#300
0!
0+
#305
1!
1+
b000000010100 4
b000000010101 <
#310
0!
0+
#315
1!
1+
b000000010101 4
b000000010110 <
#320
0!
0+
#325
1!
1+
b000000010110 4
b000000010111 <
#330
0!
0+
#335
1!
1+
b000000010111 4
b000000011000 <
#340
0!
0+
#345
1!
1+
b000000011000 4
b000000011001 <
#350
0!
0+
#355
1!
1+
b000000011001 4
b000000011010 <
#360
0!
0+
#365
1!
1+
b000000011010 4
b000000011011 <
#370
0!
0+
#375
1!
1+
b000000011011 4
b000000011100 <
#380
0!
0+
#385
1!
1+
b000000011100 4
b000000011101 <
#390
0!
0+
#395
1!
1+
b000000011101 4
b000000011110 <
#400
0!
0+
#405
1!
1+
b000000011110 4
b000000011111 <
#410
0!
0+
#415
1!
1+
b000000011111 4
b000000100000 <
#420
0!
0+
#425
1!
1+
b000000100000 4
b000000100001 <
#430
0!
0+
#435
1!
1+
b000000100001 4
b000000100010 <
#440
0!
0+
#445
1!
1+
b000000100010 4
b000000100011 <
#450
0!
0+
#455
1!
1+
b000000100011 4
b000000100100 <
#460
0!
0+
#465
1!
1+
b000000100100 4
b000000100101 <
#470
0!
0+
#475
1!
1+
b000000100101 4
b000000100110 <
#480
0!
0+
#485
1!
1+
b000000100110 4
b000000100111 <
#490
0!
0+
#495
1!
1+
b000000100111 4
b000000101000 <
#500
0!
0+
#505
1!
1+
b000000101000 4
b000000101001 <
#510
0!
0+
#515
1!
1+
b000000101001 4
b000000101010 <
#520
0!
0+
#525
1!
1+
b000000101010 4
b000000101011 <
#530
0!
0+
#535
1!
1+
b000000101011 4
b000000101100 <
#540
0!
0+
#545
1!
1+
b000000101100 4
b000000101101 <
#550
0!
0+
#555
1!
1+
b000000101101 4
b000000101110 <
#560
0!
0+
#565
1!
1+
b000000101110 4
b000000101111 <
#570
0!
0+
#575
1!
1+
b000000101111 4
b000000110000 <
#580
0!
0+
#585
1!
1+
b000000110000 4
b000000110001 <
#590
0!
0+
#595
1!
1+
b000000110001 4
b000000110010 <
#600
0!
0+
#605
1!
1+
b000000110010 4
b000000110011 <
#610
0!
0+
#615
1!
1+
b000000110011 4
b000000110100 <
#620
0!
0+
#625
1!
1+
b000000110100 4
b000000110101 <
#630
0!
0+
#635
1!
1+
b000000110101 4
b000000110110 <
#640
0!
0+
#645
1!
1+
b000000110110 4
b000000110111 <
#650
0!
0+
#655
1!
1+
b000000110111 4
b000000111000 <
#660
0!
0+
#665
1!
1+
b000000111000 4
b000000111001 <
#670
0!
0+
#675
1!
1+
b000000111001 4
b000000111010 <
#680
0!
0+
#685
1!
1+
b000000111010 4
b000000111011 <
#690
0!
0+
#695
1!
1+
b000000111011 4
b000000111100 <
#700
0!
0+
#705
1!
1+
b000000111100 4
b000000111101 <
#710
0!
0+
#715
1!
1+
b000000111101 4
b000000111110 <
#720
0!
0+
#725
1!
1+
b000000111110 4
b000000111111 <
#730
0!
0+
#735
1!
1+
b000000111111 4
b000001000000 <
#740
0!
0+
#745
1!
1+
b000001000000 4
b000001000001 <
#750
0!
0+
#755
1!
1+
b000001000001 4
b000001000010 <
#760
0!
0+
#765
1!
1+
b000001000010 4
b000001000011 <
#770
0!
0+
#775
1!
1+
b000001000011 4
b000001000100 <
#780
0!
0+
#785
1!
1+
b000001000100 4
b000001000101 <
#790
0!
0+
#795
1!
1+
b000001000101 4
b000001000110 <
#800
0!
0+
#805
1!
1+
b000001000110 4
b000001000111 <
#810
0!
0+
#815
1!
1+
b000001000111 4
b000001001000 <
#820
0!
0+
#825
1!
1+
b000001001000 4
b000001001001 <
#830
0!
0+
#835
1!
1+
b000001001001 4
b000001001010 <
#840
0!
0+
#845
1!
1+
b000001001010 4
b000001001011 <
#850
0!
0+
#855
1!
1+
b000001001011 4
b000001001100 <
#860
0!
0+
#865
1!
1+
b000001001100 4
b000001001101 <
#870
0!
0+
#875
1!
1+
b000001001101 4
b000001001110 <
#880
0!
0+
#885
1!
1+
b000001001110 4
b000001001111 <
#890
0!
0+
#895
1!
1+
b000001001111 4
b000001010000 <
#900
0!
0+
#905
1!
1+
b000001010000 4
b000001010001 <
#910
0!
0+
#915
1!
1+
b000001010001 4
b000001010010 <
#920
0!
0+
#925
1!
1+
b000001010010 4
b000001010011 <
#930
0!
0+
#935
1!
1+
b000001010011 4
b000001010100 <
#940
0!
0+
#945
1!
1+
b000001010100 4
b000001010101 <
#950
0!
0+
#955
1!
1+
b000001010101 4
b000001010110 <
#960
0!
0+
#965
1!
1+
b000001010110 4
b000001010111 <
#970
0!
0+
#975
1!
1+
b000001010111 4
b000001011000 <
#980
0!
0+
#985
1!
1+
b000001011000 4
b000001011001 <
#990
0!
0+
#995
1!
1+
b000001011001 4
b000001011010 <
#1000
0!
0+
#1005
1!
1+
b000001011010 4
b000001011011 <
#1010
0!
0+
#1015
1!
1+
b000001011011 4
b000001011100 <
#1020
0!
0+
#1025
1!
1+
b000001011100 4
b000001011101 <
#1030
0!
0+
#1035
1!
1+
b000001011101 4
b000001011110 <
#1040
0!
0+
#1045
1!
1+
b000001011110 4
b000001011111 <
#1050
0!
0+
#1055
1!
1+
b000001011111 4
b000001100000 <
#1060
0!
0+
#1065
1!
1+
b000001100000 4
b000001100001 <
#1070
0!
0+
#1075
1!
1+
b000001100001 4
b000001100010 <
#1080
0!
0+
#1085
1!
1+
b000001100010 4
b000001100011 <
#1090
0!
0+
#1095
1!
1+
b000001100011 4
b000001100100 <
#1100
0!
0+
#1105
1!
1+
b000001100100 4
b000001100101 <
#1110
0!
0+
#1115
1!
1+
b000001100101 4
b000001100110 <
#1120
0!
0+
#1125
1!
1+
b000001100110 4
b000001100111 <
#1130
0!
0+
#1135
1!
1+
b000001100111 4
b000001101000 <
#1140
0!
0+
#1145
1!
1+
b000001101000 4
b000001101001 <
#1150
0!
0+
#1155
1!
1+
b000001101001 4
b000001101010 <
#1160
0!
0+
#1165
1!
1+
b000001101010 4
b000001101011 <
#1170
0!
0+
#1175
1!
1+
b000001101011 4
b000001101100 <
#1180
0!
0+
#1185
1!
1+
b000001101100 4
b000001101101 <
#1190
0!
0+
#1195
1!
1+
b000001101101 4
b000001101110 <
#1200
0!
0+
#1205
1!
1+
b000001101110 4
b000001101111 <
#1210
0!
0+
#1215
1!
1+
b000001101111 4
b000001110000 <
#1220
0!
0+
#1225
1!
1+
b000001110000 4
b000001110001 <
#1230
0!
0+
#1235
1!
1+
b000001110001 4
b000001110010 <
#1240
0!
0+
#1245
1!
1+
b000001110010 4
b000001110011 <
#1250
0!
0+
#1255
1!
1+
b000001110011 4
b000001110100 <
#1260
0!
0+
#1265
1!
1+
b000001110100 4
b000001110101 <
#1270
0!
0+
#1275
1!
1+
b000001110101 4
b000001110110 <
#1280
0!
0+
#1285
1!
1+
b000001110110 4
b000001110111 <
#1290
0!
0+
#1295
1!
1+
b000001110111 4
b000001111000 <
#1300
0!
0+
#1305
1!
1+
b000001111000 4
b000001111001 <
#1310
0!
0+
#1315
1!
1+
b000001111001 4
b000001111010 <
#1320
0!
0+
#1325
1!
1+
b000001111010 4
b000001111011 <
#1330
0!
0+
#1335
1!
1+
b000001111011 4
b000001111100 <
#1340
0!
0+
#1345
1!
1+
b000001111100 4
b000001111101 <
#1350
0!
0+
#1355
1!
1+
b000001111101 4
b000001111110 <
#1360
0!
0+
#1365
1!
1+
b000001111110 4
b000001111111 <
#1370
0!
0+
#1375
1!
1+
b000001111111 4
b000010000000 <
#1380
0!
0+
#1385
1!
1+
b000010000000 4
b000010000001 <
#1390
0!
0+
#1395
1!
1+
b000010000001 4
b000010000010 <
#1400
0!
0+
#1405
1!
1+
b000010000010 4
b000010000011 <
#1410
0!
0+
#1415
1!
1+
b000010000011 4
b000010000100 <
#1420
0!
0+
#1425
1!
1+
b000010000100 4
b000010000101 <
#1430
0!
0+
#1435
1!
1+
b000010000101 4
b000010000110 <
#1440
0!
0+
#1445
1!
1+
b000010000110 4
b000010000111 <
#1450
0!
0+
#1455
1!
1+
b000010000111 4
b000010001000 <
#1460
0!
0+
#1465
1!
1+
b000010001000 4
b000010001001 <
#1470
0!
0+
#1475
1!
1+
b000010001001 4
b000010001010 <
#1480
0!
0+
#1485
1!
1+
b000010001010 4
b000010001011 <
#1490
0!
0+
#1495
1!
1+
b000010001011 4
b000010001100 <
#1500
0!
0+
#1505
1!
1+
b000010001100 4
b000010001101 <
#1510
0!
0+
#1515
1!
1+
b000010001101 4
b000010001110 <
#1520
0!
0+
#1525
1!
1+
b000010001110 4
b000010001111 <
#1530
0!
0+
#1535
1!
1+
b000010001111 4
b000010010000 <
#1540
0!
0+
#1545
1!
1+
b000010010000 4
b000010010001 <
#1550
0!
0+
#1555
1!
1+
b000010010001 4
b000010010010 <
#1560
0!
0+
#1565
1!
1+
b000010010010 4
b000010010011 <
#1570
0!
0+
#1575
1!
1+
b000010010011 4
b000010010100 <
#1580
0!
0+
#1585
1!
1+
b000010010100 4
b000010010101 <
#1590
0!
0+
#1595
1!
1+
b000010010101 4
b000010010110 <
#1600
0!
0+
#1605
1!
1+
b000010010110 4
b000010010111 <
#1610
0!
0+
#1615
1!
1+
b000010010111 4
b000010011000 <
#1620
0!
0+
#1625
1!
1+
b000010011000 4
b000010011001 <
#1630
0!
0+
#1635
1!
1+
b000010011001 4
b000010011010 <
#1640
0!
0+
#1645
1!
1+
b000010011010 4
b000010011011 <
#1650
0!
0+
#1655
1!
1+
b000010011011 4
b000010011100 <
#1660
0!
0+
#1665
1!
1+
b000010011100 4
b000010011101 <
#1670
0!
0+
#1675
1!
1+
b000010011101 4
b000010011110 <
#1680
0!
0+
#1685
1!
1+
b000010011110 4
b000010011111 <
#1690
0!
0+
#1695
1!
1+
b000010011111 4
b000010100000 <
#1700
0!
0+
#1705
1!
1+
b000010100000 4
b000010100001 <
#1710
0!
0+
#1715
1!
1+
b000010100001 4
b000010100010 <
#1720
0!
0+
#1725
1!
1+
b000010100010 4
b000010100011 <
#1730
0!
0+
#1735
1!
1+
b000010100011 4
b000010100100 <
#1740
0!
0+
#1745
1!
1+
b000010100100 4
b000010100101 <
#1750
0!
0+
#1755
1!
1+
b000010100101 4
b000010100110 <
#1760
0!
0+
#1765
1!
1+
b000010100110 4
b000010100111 <
#1770
0!
0+
#1775
1!
1+
b000010100111 4
b000010101000 <
#1780
0!
0+
#1785
1!
1+
b000010101000 4
b000010101001 <
#1790
0!
0+
#1795
1!
1+
b000010101001 4
b000010101010 <
#1800
0!
0+
#1805
1!
1+
b000010101010 4
b000010101011 <
#1810
0!
0+
#1815
1!
1+
b000010101011 4
b000010101100 <
#1820
0!
0+
#1825
1!
1+
b000010101100 4
b000010101101 <
#1830
0!
0+
#1835
1!
1+
b000010101101 4
b000010101110 <
#1840
0!
0+
#1845
1!
1+
b000010101110 4
b000010101111 <
#1850
0!
0+
#1855
1!
1+
b000010101111 4
b000010110000 <
#1860
0!
0+
#1865
1!
1+
b000010110000 4
b000010110001 <
#1870
0!
0+
#1875
1!
1+
b000010110001 4
b000010110010 <
#1880
0!
0+
#1885
1!
1+
b000010110010 4
b000010110011 <
#1890
0!
0+
#1895
1!
1+
b000010110011 4
b000010110100 <
#1900
0!
0+
#1905
1!
1+
b000010110100 4
b000010110101 <
#1910
0!
0+
#1915
1!
1+
b000010110101 4
b000010110110 <
#1920
0!
0+
#1925
1!
1+
b000010110110 4
b000010110111 <
#1930
0!
0+
#1935
1!
1+
b000010110111 4
b000010111000 <
#1940
0!
0+
#1945
1!
1+
b000010111000 4
b000010111001 <
#1950
0!
0+
#1955
1!
1+
b000010111001 4
b000010111010 <
#1960
0!
0+
#1965
1!
1+
b000010111010 4
b000010111011 <
#1970
0!
0+
#1975
1!
1+
b000010111011 4
b000010111100 <
#1980
0!
0+
#1985
1!
1+
b000010111100 4
b000010111101 <
#1990
0!
0+
#1995
1!
1+
b000010111101 4
b000010111110 <
#2000
0!
0+
#2005
1!
1+
b000010111110 4
b000010111111 <
#2010
0!
0+
#2015
1!
1+
b000010111111 4
b000011000000 <
#2020
0!
0+
#2025
1!
1+
b000011000000 4
b000011000001 <
#2030
0!
0+
#2035
1!
1+
b000011000001 4
b000011000010 <
#2040
0!
0+
#2045
1!
1+
b000011000010 4
b000011000011 <
#2050
0!
0+
#2055
1!
1+
b000011000011 4
b000011000100 <
#2060
0!
0+
#2065
1!
1+
b000011000100 4
b000011000101 <
#2070
0!
0+
#2075
1!
1+
b000011000101 4
b000011000110 <
#2080
0!
0+
#2085
1!
1+
b000011000110 4
b000011000111 <
#2090
0!
0+
#2095
1!
1+
b000011000111 4
b000011001000 <
#2100
0!
0+
#2105
1!
1+
b000011001000 4
b000011001001 <
#2110
0!
0+
#2115
1!
1+
b000011001001 4
b000011001010 <
#2120
0!
0+
#2125
1!
1+
b000011001010 4
b000011001011 <
#2130
0!
0+
#2135
1!
1+
b000011001011 4
b000011001100 <
#2140
0!
0+
#2145
1!
1+
b000011001100 4
b000011001101 <
#2150
0!
0+
#2155
1!
1+
b000011001101 4
b000011001110 <
#2160
0!
0+
#2165
1!
1+
b000011001110 4
b000011001111 <
#2170
0!
0+
#2175
1!
1+
b000011001111 4
b000011010000 <
#2180
0!
0+
#2185
1!
1+
b000011010000 4
b000011010001 <
#2190
0!
0+
#2195
1!
1+
b000011010001 4
b000011010010 <
#2200
0!
0+
#2205
1!
1+
b000011010010 4
b000011010011 <
#2210
0!
0+
#2215
1!
1+
b000011010011 4
b000011010100 <
#2220
0!
0+
#2225
1!
1+
b000011010100 4
b000011010101 <
#2230
0!
0+
#2235
1!
1+
b000011010101 4
b000011010110 <
#2240
0!
0+
#2245
1!
1+
b000011010110 4
b000011010111 <
#2250
0!
0+
#2255
1!
1+
b000011010111 4
b000011011000 <
#2260
0!
0+
#2265
1!
1+
b000011011000 4
b000011011001 <
#2270
0!
0+
#2275
1!
1+
b000011011001 4
b000011011010 <
#2280
0!
0+
#2285
1!
1+
b000011011010 4
b000011011011 <
#2290
0!
0+
#2295
1!
1+
b000011011011 4
b000011011100 <
#2300
0!
0+
#2305
1!
1+
b000011011100 4
b000011011101 <
#2310
0!
0+
#2315
1!
1+
b000011011101 4
b000011011110 <
#2320
0!
0+
#2325
1!
1+
b000011011110 4
b000011011111 <
#2330
0!
0+
#2335
1!
1+
b000011011111 4
b000011100000 <
#2340
0!
0+
#2345
1!
1+
b000011100000 4
b000011100001 <
#2350
0!
0+
#2355
1!
1+
b000011100001 4
b000011100010 <
#2360
0!
0+
#2365
1!
1+
b000011100010 4
b000011100011 <
#2370
0!
0+
#2375
1!
1+
b000011100011 4
b000011100100 <
#2380
0!
0+
#2385
1!
1+
b000011100100 4
b000011100101 <
#2390
0!
0+
#2395
1!
1+
b000011100101 4
b000011100110 <
#2400
0!
0+
#2405
1!
1+
b000011100110 4
b000011100111 <
#2410
0!
0+
#2415
1!
1+
b000011100111 4
b000011101000 <
#2420
0!
0+
#2425
1!
1+
b000011101000 4
b000011101001 <
#2430
0!
0+
#2435
1!
1+
b000011101001 4
b000011101010 <
#2440
0!
0+
#2445
1!
1+
b000011101010 4
b000011101011 <
#2450
0!
0+
#2455
1!
1+
b000011101011 4
b000011101100 <
#2460
0!
0+
#2465
1!
1+
b000011101100 4
b000011101101 <
#2470
0!
0+
#2475
1!
1+
b000011101101 4
b000011101110 <
#2480
0!
0+
#2485
1!
1+
b000011101110 4
b000011101111 <
#2490
0!
0+
#2495
1!
1+
b000011101111 4
b000011110000 <
#2500
0!
0+
#2505
1!
1+
b000011110000 4
b000011110001 <
#2510
0!
0+
#2515
1!
1+
b000011110001 4
b000011110010 <
#2520
0!
0+
#2525
1!
1+
b000011110010 4
b000011110011 <
#2530
0!
0+
#2535
1!
1+
b000011110011 4
b000011110100 <
#2540
0!
0+
#2545
1!
1+
b000011110100 4
b000011110101 <
#2550
0!
0+
#2555
1!
1+
b000011110101 4
b000011110110 <
#2560
0!
0+
#2565
1!
1+
b000011110110 4
b000011110111 <
#2570
0!
0+
#2575
1!
1+
b000011110111 4
b000011111000 <
#2580
0!
0+
#2585
1!
1+
b000011111000 4
b000011111001 <
#2590
0!
0+
#2595
1!
1+
b000011111001 4
b000011111010 <
#2600
0!
0+
#2605
1!
1+
b000011111010 4
b000011111011 <
#2610
0!
0+
#2615
1!
1+
b000011111011 4
b000011111100 <
#2620
0!
0+
#2625
1!
1+
b000011111100 4
b000011111101 <
#2630
0!
0+
#2635
1!
1+
b000011111101 4
b000011111110 <
#2640
0!
0+
#2645
1!
1+
b000011111110 4
b000011111111 <
#2650
0!
0+
#2655
1!
1+
b000011111111 4
b000100000000 <
#2660
0!
0+
#2665
1!
1+
b000100000000 4
b000100000001 <
#2670
0!
0+
#2675
1!
1+
b000100000001 4
b000100000010 <
#2680
0!
0+
#2685
1!
1+
b000100000010 4
b000100000011 <
#2690
0!
0+
#2695
1!
1+
b000100000011 4
b000100000100 <
#2700
0!
0+
#2705
1!
1+
b000100000100 4
b000100000101 <
#2710
0!
0+
#2715
1!
1+
b000100000101 4
b000100000110 <
#2720
0!
0+
#2725
1!
1+
b000100000110 4
b000100000111 <
#2730
0!
0+
#2735
1!
1+
b000100000111 4
b000100001000 <
#2740
0!
0+
#2745
1!
1+
b000100001000 4
b000100001001 <
#2750
0!
0+
#2755
1!
1+
b000100001001 4
b000100001010 <
#2760
0!
0+
#2765
1!
1+
b000100001010 4
b000100001011 <
#2770
0!
0+
#2775
1!
1+
b000100001011 4
b000100001100 <
#2780
0!
0+
#2785
1!
1+
b000100001100 4
b000100001101 <
#2790
0!
0+
#2795
1!
1+
b000100001101 4
b000100001110 <
#2800
0!
0+
#2805
1!
1+
b000100001110 4
b000100001111 <
#2810
0!
0+
#2815
1!
1+
b000100001111 4
b000100010000 <
#2820
0!
0+
#2825
1!
1+
b000100010000 4
b000100010001 <
#2830
0!
0+
#2835
1!
1+
b000100010001 4
b000100010010 <
#2840
0!
0+
#2845
1!
1+
b000100010010 4
b000100010011 <
#2850
0!
0+
#2855
1!
1+
b000100010011 4
b000100010100 <
#2860
0!
0+
#2865
1!
1+
b000100010100 4
b000100010101 <
#2870
0!
0+
#2875
1!
1+
b000100010101 4
b000100010110 <
#2880
0!
0+
#2885
1!
1+
b000100010110 4
b000100010111 <
#2890
0!
0+
#2895
1!
1+
b000100010111 4
b000100011000 <
#2900
0!
0+
#2905
1!
1+
b000100011000 4
b000100011001 <
#2910
0!
0+
#2915
1!
1+
b000100011001 4
b000100011010 <
#2920
0!
0+
#2925
1!
1+
b000100011010 4
b000100011011 <
#2930
0!
0+
#2935
1!
1+
b000100011011 4
b000100011100 <
#2940
0!
0+
#2945
1!
1+
b000100011100 4
b000100011101 <
#2950
0!
0+
#2955
1!
1+
b000100011101 4
b000100011110 <
#2960
0!
0+
#2965
1!
1+
b000100011110 4
b000100011111 <
#2970
0!
0+
#2975
1!
1+
b000100011111 4
b000100100000 <
#2980
0!
0+
#2985
1!
1+
b000100100000 4
b000100100001 <
#2990
0!
0+
#2995
1!
1+
b000100100001 4
b000100100010 <
#3000
0!
0+
#3005
1!
1+
b000100100010 4
b000100100011 <
#3010
0!
0+
#3015
1!
1+
b000100100011 4
b000100100100 <
#3020
0!
0+
#3025
1!
1+
b000100100100 4
b000100100101 <
#3030
0!
0+
#3035
1!
1+
b000100100101 4
b000100100110 <
#3040
0!
0+
#3045
1!
1+
b000100100110 4
b000100100111 <
#3050
0!
0+
#3055
1!
1+
b000100100111 4
b000100101000 <
#3060
0!
0+
#3065
1!
1+
b000100101000 4
b000100101001 <
#3070
0!
0+
#3075
1!
1+
b000100101001 4
b000100101010 <
#3080
0!
0+
#3085
1!
1+
b000100101010 4
b000100101011 <
#3090
0!
0+
#3095
1!
1+
b000100101011 4
b000100101100 <
#3100
0!
0+
#3105
1!
1+
b000100101100 4
b000100101101 <
#3110
0!
0+
#3115
1!
1+
b000100101101 4
b000100101110 <
#3120
0!
0+
#3125
1!
1+
b000100101110 4
b000100101111 <
#3130
0!
0+
#3135
1!
1+
b000100101111 4
b000100110000 <
#3140
0!
0+
#3145
1!
1+
b000100110000 4
b000100110001 <
#3150
0!
0+
#3155
1!
1+
b000100110001 4
b000100110010 <
#3160
0!
0+
#3165
1!
1+
b000100110010 4
b000100110011 <
#3170
0!
0+
#3175
1!
1+
b000100110011 4
b000100110100 <
#3180
0!
0+
#3185
1!
1+
b000100110100 4
b000100110101 <
#3190
0!
0+
#3195
1!
1+
b000100110101 4
b000100110110 <
#3200
0!
0+
#3205
1!
1+
b000100110110 4
b000100110111 <
#3210
0!
0+
#3215
1!
1+
b000100110111 4
b000100111000 <
#3220
0!
0+
#3225
1!
1+
b000100111000 4
b000100111001 <
#3230
0!
0+
#3235
1!
1+
b000100111001 4
b000100111010 <
#3240
0!
0+
#3245
1!
1+
b000100111010 4
b000100111011 <
#3250
0!
0+
#3255
1!
1+
b000100111011 4
b000100111100 <
#3260
0!
0+
#3265
1!
1+
b000100111100 4
b000100111101 <
#3270
0!
0+
#3275
1!
1+
b000100111101 4
b000100111110 <
#3280
0!
0+
#3285
1!
1+
b000100111110 4
b000100111111 <
#3290
0!
0+
#3295
1!
1+
b000100111111 4
b000101000000 <
#3300
0!
0+
#3305
1!
1+
b000101000000 4
b000101000001 <
#3310
0!
0+
#3315
1!
1+
b000101000001 4
b000101000010 <
#3320
0!
0+
#3325
1!
1+
b000101000010 4
b000101000011 <
#3330
0!
0+
#3335
1!
1+
b000101000011 4
b000101000100 <
#3340
0!
0+
#3345
1!
1+
b000101000100 4
b000101000101 <
#3350
0!
0+
#3355
1!
1+
b000101000101 4
b000101000110 <
#3360
0!
0+
#3365
1!
1+
b000101000110 4
b000101000111 <
#3370
0!
0+
#3375
1!
1+
b000101000111 4
b000101001000 <
#3380
0!
0+
#3385
1!
1+
b000101001000 4
b000101001001 <
#3390
0!
0+
#3395
1!
1+
b000101001001 4
b000101001010 <
#3400
0!
0+
#3405
1!
1+
b000101001010 4
b000101001011 <
#3410
0!
0+
#3415
1!
1+
b000101001011 4
b000101001100 <
#3420
0!
0+
#3425
1!
1+
b000101001100 4
b000101001101 <
#3430
0!
0+
#3435
1!
1+
b000101001101 4
b000101001110 <
#3440
0!
0+
#3445
1!
1+
b000101001110 4
b000101001111 <
#3450
0!
0+
#3455
1!
1+
b000101001111 4
b000101010000 <
#3460
0!
0+
#3465
1!
1+
b000101010000 4
b000101010001 <
#3470
0!
0+
#3475
1!
1+
b000101010001 4
b000101010010 <
#3480
0!
0+
#3485
1!
1+
b000101010010 4
b000101010011 <
#3490
0!
0+
#3495
1!
1+
b000101010011 4
b000101010100 <
#3500
0!
0+
#3505
1!
1+
b000101010100 4
b000101010101 <
#3510
0!
0+
#3515
1!
1+
b000101010101 4
b000101010110 <
#3520
0!
0+
#3525
1!
1+
b000101010110 4
b000101010111 <
#3530
0!
0+
#3535
1!
1+
b000101010111 4
b000101011000 <
#3540
0!
0+
#3545
1!
1+
b000101011000 4
b000101011001 <
#3550
0!
0+
#3555
1!
1+
b000101011001 4
b000101011010 <
#3560
0!
0+
#3565
1!
1+
b000101011010 4
b000101011011 <
#3570
0!
0+
#3575
1!
1+
b000101011011 4
b000101011100 <
#3580
0!
0+
#3585
1!
1+
b000101011100 4
b000101011101 <
#3590
0!
0+
#3595
1!
1+
b000101011101 4
b000101011110 <
#3600
0!
0+
#3605
1!
1+
b000101011110 4
b000101011111 <
#3610
0!
0+
#3615
1!
1+
b000101011111 4
b000101100000 <
#3620
0!
0+
#3625
1!
1+
b000101100000 4
b000101100001 <
#3630
0!
0+
#3635
1!
1+
b000101100001 4
b000101100010 <
#3640
0!
0+
#3645
1!
1+
b000101100010 4
b000101100011 <
#3650
0!
0+
#3655
1!
1+
b000101100011 4
b000101100100 <
#3660
0!
0+
#3665
1!
1+
b000101100100 4
b000101100101 <
#3670
0!
0+
#3675
1!
1+
b000101100101 4
b000101100110 <
#3680
0!
0+
#3685
1!
1+
b000101100110 4
b000101100111 <
#3690
0!
0+
#3695
1!
1+
b000101100111 4
b000101101000 <
#3700
0!
0+
#3705
1!
1+
b000101101000 4
b000101101001 <
#3710
0!
0+
#3715
1!
1+
b000101101001 4
b000101101010 <
#3720
0!
0+
#3725
1!
1+
b000101101010 4
b000101101011 <
#3730
0!
0+
#3735
1!
1+
b000101101011 4
b000101101100 <
#3740
0!
0+
#3745
1!
1+
b000101101100 4
b000101101101 <
#3750
0!
0+
#3755
1!
1+
b000101101101 4
b000101101110 <
#3760
0!
0+
#3765
1!
1+
b000101101110 4
b000101101111 <
#3770
0!
0+
#3775
1!
1+
b000101101111 4
b000101110000 <
#3780
0!
0+
#3785
1!
1+
b000101110000 4
b000101110001 <
#3790
0!
0+
#3795
1!
1+
b000101110001 4
b000101110010 <
#3800
0!
0+
#3805
1!
1+
b000101110010 4
b000101110011 <
#3810
0!
0+
#3815
1!
1+
b000101110011 4
b000101110100 <
#3820
0!
0+
#3825
1!
1+
b000101110100 4
b000101110101 <
#3830
0!
0+
#3835
1!
1+
b000101110101 4
b000101110110 <
#3840
0!
0+
#3845
1!
1+
b000101110110 4
b000101110111 <
#3850
0!
0+
#3855
1!
1+
b000101110111 4
b000101111000 <
#3860
0!
0+
#3865
1!
1+
b000101111000 4
b000101111001 <
#3870
0!
0+
#3875
1!
1+
b000101111001 4
b000101111010 <
#3880
0!
0+
#3885
1!
1+
b000101111010 4
b000101111011 <
#3890
0!
0+
#3895
1!
1+
b000101111011 4
b000101111100 <
