waveform.vcd
$date
	Fri Jun 20 08:23:26 2025
$end

$version
	Synopsys VCS version W-2024.09-SP2_Full64
$end

$timescale
	1s
$end

$comment Csum: 1 468f6ed36bbc3877 $end


$scope module uvm_pkg $end
$var time 64 ! setting_offset $end
$var reg 32 " uvm_global_random_seed [31:0] $end
$var reg 32 # UVM_UNBOUNDED_CONNECTIONS [31:0] $end
$var reg 1 $ uvm_start_uvm_declarations $end
$var reg 32 % setting_verbosity [31:0] $end
$var reg 1 & is_verdi_set_verbosity_called $end
$upscope $end


$scope module uart_tb $end
$var reg 1 ' clk $end
$var reg 1 ( reset $end
$var reg 1 ) start $end
$var reg 8 * data_tx [7:0] $end
$var wire 8 + data_rx [7:0] $end
$var wire 1 , ready_tx $end
$var wire 1 - ready $end
$var wire 1 . tx $end
$var wire 1 / parity_rx $end
$var wire 1 0 rx $end

$scope module uut $end
$var wire 1 1 CLK $end
$var wire 1 2 RESET $end
$var wire 1 0 RX $end
$var wire 1 3 START $end
$var wire 8 4 DATA_TX [7:0] $end
$var wire 12 5 WORK_FR [11:0] $end
$var wire 1 . TX $end
$var wire 8 + DATA_RX [7:0] $end
$var wire 1 / PARITY_RX $end
$var wire 1 , READY_TX $end
$var wire 1 - READY $end

$scope module RX0 $end
$var wire 1 1 PCLK $end
$var wire 1 2 RESET $end
$var wire 1 0 RX_I $end
$var wire 12 5 WORK_FR [11:0] $end
$var reg 8 6 DATA_RX_O [7:0] $end
$var reg 1 7 PARITY_RX $end
$var wire 1 - READY $end
$var reg 4 8 state_rx [3:0] $end
$var reg 4 9 next_state_rx [3:0] $end
$var reg 12 : COUNTER [11:0] $end
$var reg 4 ; DATA_COUNTER [3:0] $end
$var reg 1 < AUX $end
$var reg 1 = PARITY_BIT_RXED $end
$var wire 1 > CALCULATED_PARITY $end
$upscope $end


$scope module TX0 $end
$var wire 1 1 PCLK $end
$var wire 1 2 RESET $end
$var wire 8 4 DATA_TX_I [7:0] $end
$var wire 12 5 WORK_FR [11:0] $end
$var wire 1 3 START $end
$var wire 1 . TX_O $end
$var reg 1 ? READY_TX $end
$var reg 12 @ state_tx [11:0] $end
$var reg 12 A next_state_tx [11:0] $end
$var reg 12 B DELAY_COUNTER [11:0] $end
$upscope $end

$upscope $end

$upscope $end


$scope module $unit $end
$var reg 32 C is_reg_hier_recorded [31:0] $end
$var reg 32 D is_dhier_visited [31:0] $end
$var reg 32 E is_reg_hier_dumping [31:0] $end
$upscope $end


$scope module _vcs_msglog $end
$var reg 32 F _MSG_T [31:0] $end
$var reg 32 G _MSG_S [31:0] $end
$var reg 32 H _MSG_R [31:0] $end
$upscope $end


$scope module uvm_custom_install_recording $end
$var reg 32 I file_handle [31:0] $end
$var reg 32 J is_sanity_exist [31:0] $end

$scope begin unnamed$$_vcs_2 $end

$scope begin unnamed$$_0 $end
$upscope $end

$upscope $end

$upscope $end


$scope module uvm_custom_install_verdi_recording $end
$var reg 32 K user_verbosity [31:0] $end
$var reg 1 L hooks_version_flag $end
$var integer 32 M verdi_recorder_counter $end
$var reg 1 N plusargs_tested $end
$var reg 1 O enable_verdi_debug $end
$var reg 1 P enable_port_recording $end
$var reg 1 Q enable_tlm2_port_recording $end
$var reg 1 R enable_imp_port_recording $end
$var reg 32 S uvmHandle [31:0] $end
$var reg 32 T file_h [31:0] $end
$var reg 32 U file_handle [31:0] $end
$var reg 32 V is_sanity_exist [31:0] $end
$var reg 32 W is_vpd_record [31:0] $end
$var reg 32 X is_vcs_home_exist [31:0] $end
$var reg 32 Y is_vcs_uvm_home_exist [31:0] $end

$scope begin unnamed$$_vcs_3 $end

$scope begin unnamed$$_0 $end
$var reg 32 Z verb_count [31:0] $end
$upscope $end


$scope begin unnamed$$_1 $end

$scope begin unnamed$$_2 $end
$upscope $end


$scope begin unnamed$$_3 $end
$upscope $end


$scope begin unnamed$$_4 $end
$upscope $end

$upscope $end

$upscope $end

$upscope $end

$enddefinitions $end

#0
$dumpvars
b00000000000000000000000000000000 D
b00000000000000000000000000000000 E
b00000000000000000000000000000000 C
0&
1$
bxxxxxxxxxxxxxxxxxxxxxxxxxxxxxxxxxxxxxxxxxxxxxxxxxxxxxxxxxxxxxxxx !
b11111111111111111111111111111111 #
b00000000000000000000000000000000 %
b01000010000001111100110001000111 "
b00000000000000000000000000000000 H
b00000000000000000000000000000000 G
b00000000000000000000000000000000 F
b00000000000000000000000000000000 I
b00000000000000000000000000000000 J
0R
0P
0Q
0O
0L
0N
b00000000000000000000000000000000 M
b00000000000000000000000000000000 T
b00000000000000000000000000000000 U
b00000000000000000000000000000000 V
b00000000000000000000000000000001 X
b00000000000000000000000000000000 Y
b00000000000000000000000000000000 W
b00000000000000000000000000000000 Z
b00000000000000000000000011001000 K
b00000000000000000000000000000000 S
x<
x>
x=
12
x7
03
x?
0'
x/
x-
x,
1(
x0
0)
x.
bxxxxxxxxxxxx :
bxxxx ;
bxxxxxxxx 6
bxxxxxxxx 4
bxxxxxxxxxxxx B
bxxxxxxxx +
bxxxxxxxx *
b0000 9
b000000000000 A
bxxxx 8
bxxxxxxxxxxxx @
b100010110000 5
01
$end
#5
1'
11
b0000 8
0-
b000000000000 :
b0000 ;
b00000000 6
b00000000 +
0>
1<
07
0/
0=
1?
1,
b000000000000 B
b000000000000 @
b000x 9
1.
10
b0000 9
#10
0'
01
#15
1'
11
#20
0'
01
#25
1'
11
#30
0'
01
#35
1'
11
#40
0'
01
#45
1'
11
#50
0'
01
#55
1'
11
#60
0'
01
#65
1'
11
#70
0'
01
#75
1'
11
#80
0'
01
#85
1'
11
#90
0'
01
#95
1'
11
#100
0(
02
b10101010 *
b10101010 4
1)
13
0'
01
b000000000001 A
#105
1'
11
b000000000001 @
0?
0,
b000000000001 B
0.
00
b0001 9
#110
0)
03
0'
01
#115
1'
11
b0001 8
b000000000001 :
b000000000010 B
#120
0'
01
#125
1'
11
b000000000010 :
b000000000011 B
#130
0'
01
#135
1'
11
b000000000011 :
b000000000100 B
#140
0'
01
#145
1'
11
b000000000100 :
b000000000101 B
#150
0'
01
#155
1'
11
b000000000101 :
b000000000110 B
#160
0'
01
#165
1'
11
b000000000110 :
b000000000111 B
#170
0'
01
#175
1'
11
b000000000111 :
b000000001000 B
#180
0'
01
#185
1'
11
b000000001000 :
b000000001001 B
#190
0'
01
#195
1'
11
b000000001001 :
b000000001010 B
#200
0'
01
#205
1'
11
b000000001010 :
b000000001011 B
#210
0'
01
#215
1'
11
b000000001011 :
b000000001100 B
#220
0'
01
#225
1'
11
b000000001100 :
b000000001101 B
#230
0'
01
#235
1'
11
b000000001101 :
b000000001110 B
#240
0'
01
#245
1'
11
b000000001110 :
b000000001111 B
#250
0'
01
#255
1'
11
b000000001111 :
b000000010000 B
#260
0'
01
#265
1'
11
b000000010000 :
b000000010001 B
#270
0'
01
#275
1'
11
b000000010001 :
b000000010010 B
#280
0'
01
#285
1'
11
b000000010010 :
b000000010011 B
#290
0'
01
#295
1'
11
b000000010011 :
b000000010100 B
#300
0'
01
#305
1'
11
b000000010100 :
b000000010101 B
#310
0'
01
#315
1'
11
b000000010101 :
b000000010110 B
#320
0'
01
#325
1'
11
b000000010110 :
b000000010111 B
#330
0'
01
#335
1'
11
b000000010111 :
b000000011000 B
#340
0'
01
#345
1'
11
b000000011000 :
b000000011001 B
#350
0'
01
#355
1'
11
b000000011001 :
b000000011010 B
#360
0'
01
#365
1'
11
b000000011010 :
b000000011011 B
#370
0'
01
#375
1'
11
b000000011011 :
b000000011100 B
#380
0'
01
#385
1'
11
b000000011100 :
b000000011101 B
#390
0'
01
#395
1'
11
b000000011101 :
b000000011110 B
#400
0'
01
#405
1'
11
b000000011110 :
b000000011111 B
#410
0'
01
#415
1'
11
b000000011111 :
b000000100000 B
#420
0'
01
#425
1'
11
b000000100000 :
b000000100001 B
#430
0'
01
#435
1'
11
b000000100001 :
b000000100010 B
#440
0'
01
#445
1'
11
b000000100010 :
b000000100011 B
#450
0'
01
#455
1'
11
b000000100011 :
b000000100100 B
#460
0'
01
#465
1'
11
b000000100100 :
b000000100101 B
#470
0'
01
#475
1'
11
b000000100101 :
b000000100110 B
#480
0'
01
#485
1'
11
b000000100110 :
b000000100111 B
#490
0'
01
#495
1'
11
b000000100111 :
b000000101000 B
#500
0'
01
#505
1'
11
b000000101000 :
b000000101001 B
#510
0'
01
#515
1'
11
b000000101001 :
b000000101010 B
#520
0'
01
#525
1'
11
b000000101010 :
b000000101011 B
#530
0'
01
#535
1'
11
b000000101011 :
b000000101100 B
#540
0'
01
#545
1'
11
b000000101100 :
b000000101101 B
#550
0'
01
#555
1'
11
b000000101101 :
b000000101110 B
#560
0'
01
#565
1'
11
b000000101110 :
b000000101111 B
#570
0'
01
#575
1'
11
b000000101111 :
b000000110000 B
#580
0'
01
#585
1'
11
b000000110000 :
b000000110001 B
#590
0'
01
#595
1'
11
b000000110001 :
b000000110010 B
#600
0'
01
#605
1'
11
b000000110010 :
b000000110011 B
#610
0'
01
#615
1'
11
b000000110011 :
b000000110100 B
#620
0'
01
#625
1'
11
b000000110100 :
b000000110101 B
#630
0'
01
#635
1'
11
b000000110101 :
b000000110110 B
#640
0'
01
#645
1'
11
b000000110110 :
b000000110111 B
#650
0'
01
#655
1'
11
b000000110111 :
b000000111000 B
#660
0'
01
#665
1'
11
b000000111000 :
b000000111001 B
#670
0'
01
#675
1'
11
b000000111001 :
b000000111010 B
#680
0'
01
#685
1'
11
b000000111010 :
b000000111011 B
#690
0'
01
#695
1'
11
b000000111011 :
b000000111100 B
#700
0'
01
#705
1'
11
b000000111100 :
b000000111101 B
#710
0'
01
#715
1'
11
b000000111101 :
b000000111110 B
#720
0'
01
#725
1'
11
b000000111110 :
b000000111111 B
#730
0'
01
#735
1'
11
b000000111111 :
b000001000000 B
#740
0'
01
#745
1'
11
b000001000000 :
b000001000001 B
#750
0'
01
#755
1'
11
b000001000001 :
b000001000010 B
#760
0'
01
#765
1'
11
b000001000010 :
b000001000011 B
#770
0'
01
#775
1'
11
b000001000011 :
b000001000100 B
#780
0'
01
#785
1'
11
b000001000100 :
b000001000101 B
#790
0'
01
#795
1'
11
b000001000101 :
b000001000110 B
#800
0'
01
#805
1'
11
b000001000110 :
b000001000111 B
#810
0'
01
#815
1'
11
b000001000111 :
b000001001000 B
#820
0'
01
#825
1'
11
b000001001000 :
b000001001001 B
#830
0'
01
#835
1'
11
b000001001001 :
b000001001010 B
#840
0'
01
#845
1'
11
b000001001010 :
b000001001011 B
#850
0'
01
#855
1'
11
b000001001011 :
b000001001100 B
#860
0'
01
#865
1'
11
b000001001100 :
b000001001101 B
#870
0'
01
#875
1'
11
b000001001101 :
b000001001110 B
#880
0'
01
#885
1'
11
b000001001110 :
b000001001111 B
#890
0'
01
#895
1'
11
b000001001111 :
b000001010000 B
#900
0'
01
#905
1'
11
b000001010000 :
b000001010001 B
#910
0'
01
#915
1'
11
b000001010001 :
b000001010010 B
#920
0'
01
#925
1'
11
b000001010010 :
b000001010011 B
#930
0'
01
#935
1'
11
b000001010011 :
b000001010100 B
#940
0'
01
#945
1'
11
b000001010100 :
b000001010101 B
#950
0'
01
#955
1'
11
b000001010101 :
b000001010110 B
#960
0'
01
#965
1'
11
b000001010110 :
b000001010111 B
#970
0'
01
#975
1'
11
b000001010111 :
b000001011000 B
#980
0'
01
#985
1'
11
b000001011000 :
b000001011001 B
#990
0'
01
#995
1'
11
b000001011001 :
b000001011010 B
#1000
0'
01
#1005
1'
11
b000001011010 :
b000001011011 B
#1010
0'
01
#1015
1'
11
b000001011011 :
b000001011100 B
#1020
0'
01
#1025
1'
11
b000001011100 :
b000001011101 B
#1030
0'
01
#1035
1'
11
b000001011101 :
b000001011110 B
#1040
0'
01
#1045
1'
11
b000001011110 :
b000001011111 B
#1050
0'
01
#1055
1'
11
b000001011111 :
b000001100000 B
#1060
0'
01
#1065
1'
11
b000001100000 :
b000001100001 B
#1070
0'
01
#1075
1'
11
b000001100001 :
b000001100010 B
#1080
0'
01
#1085
1'
11
b000001100010 :
b000001100011 B
#1090
0'
01
#1095
1'
11
b000001100011 :
b000001100100 B
#1100
0'
01
#1105
1'
11
b000001100100 :
b000001100101 B
#1110
0'
01
#1115
1'
11
b000001100101 :
b000001100110 B
#1120
0'
01
#1125
1'
11
b000001100110 :
b000001100111 B
#1130
0'
01
#1135
1'
11
b000001100111 :
b000001101000 B
#1140
0'
01
#1145
1'
11
b000001101000 :
b000001101001 B
#1150
0'
01
#1155
1'
11
b000001101001 :
b000001101010 B
#1160
0'
01
#1165
1'
11
b000001101010 :
b000001101011 B
#1170
0'
01
#1175
1'
11
b000001101011 :
b000001101100 B
#1180
0'
01
#1185
1'
11
b000001101100 :
b000001101101 B
#1190
0'
01
#1195
1'
11
b000001101101 :
b000001101110 B
#1200
0'
01
#1205
1'
11
b000001101110 :
b000001101111 B
#1210
0'
01
#1215
1'
11
b000001101111 :
b000001110000 B
#1220
0'
01
#1225
1'
11
b000001110000 :
b000001110001 B
#1230
0'
01
#1235
1'
11
b000001110001 :
b000001110010 B
#1240
0'
01
#1245
1'
11
b000001110010 :
b000001110011 B
#1250
0'
01
#1255
1'
11
b000001110011 :
b000001110100 B
#1260
0'
01
#1265
1'
11
b000001110100 :
b000001110101 B
#1270
0'
01
#1275
1'
11
b000001110101 :
b000001110110 B
#1280
0'
01
#1285
1'
11
b000001110110 :
b000001110111 B
#1290
0'
01
#1295
1'
11
b000001110111 :
b000001111000 B
#1300
0'
01
#1305
1'
11
b000001111000 :
b000001111001 B
#1310
0'
01
#1315
1'
11
b000001111001 :
b000001111010 B
#1320
0'
01
#1325
1'
11
b000001111010 :
b000001111011 B
#1330
0'
01
#1335
1'
11
b000001111011 :
b000001111100 B
#1340
0'
01
#1345
1'
11
b000001111100 :
b000001111101 B
#1350
0'
01
#1355
1'
11
b000001111101 :
b000001111110 B
#1360
0'
01
#1365
1'
11
b000001111110 :
b000001111111 B
#1370
0'
01
#1375
1'
11
b000001111111 :
b000010000000 B
#1380
0'
01
#1385
1'
11
b000010000000 :
b000010000001 B
#1390
0'
01
#1395
1'
11
b000010000001 :
b000010000010 B
#1400
0'
01
#1405
1'
11
b000010000010 :
b000010000011 B
#1410
0'
01
#1415
1'
11
b000010000011 :
b000010000100 B
#1420
0'
01
#1425
1'
11
b000010000100 :
b000010000101 B
#1430
0'
01
#1435
1'
11
b000010000101 :
b000010000110 B
#1440
0'
01
#1445
1'
11
b000010000110 :
b000010000111 B
#1450
0'
01
#1455
1'
11
b000010000111 :
b000010001000 B
#1460
0'
01
#1465
1'
11
b000010001000 :
b000010001001 B
#1470
0'
01
#1475
1'
11
b000010001001 :
b000010001010 B
#1480
0'
01
#1485
1'
11
b000010001010 :
b000010001011 B
#1490
0'
01
#1495
1'
11
b000010001011 :
b000010001100 B
#1500
0'
01
#1505
1'
11
b000010001100 :
b000010001101 B
#1510
0'
01
#1515
1'
11
b000010001101 :
b000010001110 B
#1520
0'
01
#1525
1'
11
b000010001110 :
b000010001111 B
#1530
0'
01
#1535
1'
11
b000010001111 :
b000010010000 B
#1540
0'
01
#1545
1'
11
b000010010000 :
b000010010001 B
#1550
0'
01
#1555
1'
11
b000010010001 :
b000010010010 B
#1560
0'
01
#1565
1'
11
b000010010010 :
b000010010011 B
#1570
0'
01
#1575
1'
11
b000010010011 :
b000010010100 B
#1580
0'
01
#1585
1'
11
b000010010100 :
b000010010101 B
#1590
0'
01
#1595
1'
11
b000010010101 :
b000010010110 B
#1600
0'
01
#1605
1'
11
b000010010110 :
b000010010111 B
#1610
0'
01
#1615
1'
11
b000010010111 :
b000010011000 B
#1620
0'
01
#1625
1'
11
b000010011000 :
b000010011001 B
#1630
0'
01
#1635
1'
11
b000010011001 :
b000010011010 B
#1640
0'
01
#1645
1'
11
b000010011010 :
b000010011011 B
#1650
0'
01
#1655
1'
11
b000010011011 :
b000010011100 B
#1660
0'
01
#1665
1'
11
b000010011100 :
b000010011101 B
#1670
0'
01
#1675
1'
11
b000010011101 :
b000010011110 B
#1680
0'
01
#1685
1'
11
b000010011110 :
b000010011111 B
#1690
0'
01
#1695
1'
11
b000010011111 :
b000010100000 B
#1700
0'
01
#1705
1'
11
b000010100000 :
b000010100001 B
#1710
0'
01
#1715
1'
11
b000010100001 :
b000010100010 B
#1720
0'
01
#1725
1'
11
b000010100010 :
b000010100011 B
#1730
0'
01
#1735
1'
11
b000010100011 :
b000010100100 B
#1740
0'
01
#1745
1'
11
b000010100100 :
b000010100101 B
#1750
0'
01
#1755
1'
11
b000010100101 :
b000010100110 B
#1760
0'
01
#1765
1'
11
b000010100110 :
b000010100111 B
#1770
0'
01
#1775
1'
11
b000010100111 :
b000010101000 B
#1780
0'
01
#1785
1'
11
b000010101000 :
b000010101001 B
#1790
0'
01
#1795
1'
11
b000010101001 :
b000010101010 B
#1800
0'
01
#1805
1'
11
b000010101010 :
b000010101011 B
#1810
0'
01
#1815
1'
11
b000010101011 :
b000010101100 B
#1820
0'
01
#1825
1'
11
b000010101100 :
b000010101101 B
#1830
0'
01
#1835
1'
11
b000010101101 :
b000010101110 B
#1840
0'
01
#1845
1'
11
b000010101110 :
b000010101111 B
#1850
0'
01
#1855
1'
11
b000010101111 :
b000010110000 B
#1860
0'
01
#1865
1'
11
b000010110000 :
b000010110001 B
#1870
0'
01
#1875
1'
11
b000010110001 :
b000010110010 B
#1880
0'
01
#1885
1'
11
b000010110010 :
b000010110011 B
#1890
0'
01
#1895
1'
11
b000010110011 :
b000010110100 B
#1900
0'
01
#1905
1'
11
b000010110100 :
b000010110101 B
#1910
0'
01
#1915
1'
11
b000010110101 :
b000010110110 B
#1920
0'
01
#1925
1'
11
b000010110110 :
b000010110111 B
#1930
0'
01
#1935
1'
11
b000010110111 :
b000010111000 B
#1940
0'
01
#1945
1'
11
b000010111000 :
b000010111001 B
#1950
0'
01
#1955
1'
11
b000010111001 :
b000010111010 B
#1960
0'
01
#1965
1'
11
b000010111010 :
b000010111011 B
#1970
0'
01
#1975
1'
11
b000010111011 :
b000010111100 B
#1980
0'
01
#1985
1'
11
b000010111100 :
b000010111101 B
#1990
0'
01
#1995
1'
11
b000010111101 :
b000010111110 B
#2000
0'
01
#2005
1'
11
b000010111110 :
b000010111111 B
#2010
0'
01
#2015
1'
11
b000010111111 :
b000011000000 B
#2020
0'
01
#2025
1'
11
b000011000000 :
b000011000001 B
#2030
0'
01
#2035
1'
11
b000011000001 :
b000011000010 B
#2040
0'
01
#2045
1'
11
b000011000010 :
b000011000011 B
#2050
0'
01
#2055
1'
11
b000011000011 :
b000011000100 B
#2060
0'
01
#2065
1'
11
b000011000100 :
b000011000101 B
#2070
0'
01
#2075
1'
11
b000011000101 :
b000011000110 B
#2080
0'
01
#2085
1'
11
b000011000110 :
b000011000111 B
#2090
0'
01
#2095
1'
11
b000011000111 :
b000011001000 B
#2100
0'
01
#2105
1'
11
b000011001000 :
b000011001001 B
#2110
0'
01
#2115
1'
11
b000011001001 :
b000011001010 B
#2120
0'
01
#2125
1'
11
b000011001010 :
b000011001011 B
#2130
0'
01
#2135
1'
11
b000011001011 :
b000011001100 B
#2140
0'
01
#2145
1'
11
b000011001100 :
b000011001101 B
#2150
0'
01
#2155
1'
11
b000011001101 :
b000011001110 B
#2160
0'
01
#2165
1'
11
b000011001110 :
b000011001111 B
#2170
0'
01
#2175
1'
11
b000011001111 :
b000011010000 B
#2180
0'
01
#2185
1'
11
b000011010000 :
b000011010001 B
#2190
0'
01
#2195
1'
11
b000011010001 :
b000011010010 B
#2200
0'
01
#2205
1'
11
b000011010010 :
b000011010011 B
#2210
0'
01
#2215
1'
11
b000011010011 :
b000011010100 B
#2220
0'
01
#2225
1'
11
b000011010100 :
b000011010101 B
#2230
0'
01
#2235
1'
11
b000011010101 :
b000011010110 B
#2240
0'
01
#2245
1'
11
b000011010110 :
b000011010111 B
#2250
0'
01
#2255
1'
11
b000011010111 :
b000011011000 B
#2260
0'
01
#2265
1'
11
b000011011000 :
b000011011001 B
#2270
0'
01
#2275
1'
11
b000011011001 :
b000011011010 B
#2280
0'
01
#2285
1'
11
b000011011010 :
b000011011011 B
#2290
0'
01
#2295
1'
11
b000011011011 :
b000011011100 B
#2300
0'
01
#2305
1'
11
b000011011100 :
b000011011101 B
#2310
0'
01
#2315
1'
11
b000011011101 :
b000011011110 B
#2320
0'
01
#2325
1'
11
b000011011110 :
b000011011111 B
#2330
0'
01
#2335
1'
11
b000011011111 :
b000011100000 B
#2340
0'
01
#2345
1'
11
b000011100000 :
b000011100001 B
#2350
0'
01
#2355
1'
11
b000011100001 :
b000011100010 B
#2360
0'
01
#2365
1'
11
b000011100010 :
b000011100011 B
#2370
0'
01
#2375
1'
11
b000011100011 :
b000011100100 B
#2380
0'
01
#2385
1'
11
b000011100100 :
b000011100101 B
#2390
0'
01
#2395
1'
11
b000011100101 :
b000011100110 B
#2400
0'
01
#2405
1'
11
b000011100110 :
b000011100111 B
#2410
0'
01
#2415
1'
11
b000011100111 :
b000011101000 B
#2420
0'
01
#2425
1'
11
b000011101000 :
b000011101001 B
#2430
0'
01
#2435
1'
11
b000011101001 :
b000011101010 B
#2440
0'
01
#2445
1'
11
b000011101010 :
b000011101011 B
#2450
0'
01
#2455
1'
11
b000011101011 :
b000011101100 B
#2460
0'
01
#2465
1'
11
b000011101100 :
b000011101101 B
#2470
0'
01
#2475
1'
11
b000011101101 :
b000011101110 B
#2480
0'
01
#2485
1'
11
b000011101110 :
b000011101111 B
#2490
0'
01
#2495
1'
11
b000011101111 :
b000011110000 B
#2500
0'
01
#2505
1'
11
b000011110000 :
b000011110001 B
#2510
0'
01
#2515
1'
11
b000011110001 :
b000011110010 B
#2520
0'
01
#2525
1'
11
b000011110010 :
b000011110011 B
#2530
0'
01
#2535
1'
11
b000011110011 :
b000011110100 B
#2540
0'
01
#2545
1'
11
b000011110100 :
b000011110101 B
#2550
0'
01
#2555
1'
11
b000011110101 :
b000011110110 B
#2560
0'
01
#2565
1'
11
b000011110110 :
b000011110111 B
#2570
0'
01
#2575
1'
11
b000011110111 :
b000011111000 B
#2580
0'
01
#2585
1'
11
b000011111000 :
b000011111001 B
#2590
0'
01
#2595
1'
11
b000011111001 :
b000011111010 B
#2600
0'
01
#2605
1'
11
b000011111010 :
b000011111011 B
#2610
0'
01
#2615
1'
11
b000011111011 :
b000011111100 B
#2620
0'
01
#2625
1'
11
b000011111100 :
b000011111101 B
#2630
0'
01
#2635
1'
11
b000011111101 :
b000011111110 B
#2640
0'
01
#2645
1'
11
b000011111110 :
b000011111111 B
#2650
0'
01
#2655
1'
11
b000011111111 :
b000100000000 B
#2660
0'
01
#2665
1'
11
b000100000000 :
b000100000001 B
#2670
0'
01
#2675
1'
11
b000100000001 :
b000100000010 B
#2680
0'
01
#2685
1'
11
b000100000010 :
b000100000011 B
#2690
0'
01
#2695
1'
11
b000100000011 :
b000100000100 B
#2700
0'
01
#2705
1'
11
b000100000100 :
b000100000101 B
#2710
0'
01
#2715
1'
11
b000100000101 :
b000100000110 B
#2720
0'
01
#2725
1'
11
b000100000110 :
b000100000111 B
#2730
0'
01
#2735
1'
11
b000100000111 :
b000100001000 B
#2740
0'
01
#2745
1'
11
b000100001000 :
b000100001001 B
#2750
0'
01
#2755
1'
11
b000100001001 :
b000100001010 B
#2760
0'
01
#2765
1'
11
b000100001010 :
b000100001011 B
#2770
0'
01
#2775
1'
11
b000100001011 :
b000100001100 B
#2780
0'
01
#2785
1'
11
b000100001100 :
b000100001101 B
#2790
0'
01
#2795
1'
11
b000100001101 :
b000100001110 B
#2800
0'
01
#2805
1'
11
b000100001110 :
b000100001111 B
#2810
0'
01
#2815
1'
11
b000100001111 :
b000100010000 B
#2820
0'
01
#2825
1'
11
b000100010000 :
b000100010001 B
#2830
0'
01
#2835
1'
11
b000100010001 :
b000100010010 B
#2840
0'
01
#2845
1'
11
b000100010010 :
b000100010011 B
#2850
0'
01
#2855
1'
11
b000100010011 :
b000100010100 B
#2860
0'
01
#2865
1'
11
b000100010100 :
b000100010101 B
#2870
0'
01
#2875
1'
11
b000100010101 :
b000100010110 B
#2880
0'
01
#2885
1'
11
b000100010110 :
b000100010111 B
#2890
0'
01
#2895
1'
11
b000100010111 :
b000100011000 B
#2900
0'
01
#2905
1'
11
b000100011000 :
b000100011001 B
#2910
0'
01
#2915
1'
11
b000100011001 :
b000100011010 B
#2920
0'
01
#2925
1'
11
b000100011010 :
b000100011011 B
#2930
0'
01
#2935
1'
11
b000100011011 :
b000100011100 B
#2940
0'
01
#2945
1'
11
b000100011100 :
b000100011101 B
#2950
0'
01
#2955
1'
11
b000100011101 :
b000100011110 B
#2960
0'
01
#2965
1'
11
b000100011110 :
b000100011111 B
#2970
0'
01
#2975
1'
11
b000100011111 :
b000100100000 B
#2980
0'
01
#2985
1'
11
b000100100000 :
b000100100001 B
#2990
0'
01
#2995
1'
11
b000100100001 :
b000100100010 B
#3000
0'
01
#3005
1'
11
b000100100010 :
b000100100011 B
#3010
0'
01
#3015
1'
11
b000100100011 :
b000100100100 B
#3020
0'
01
#3025
1'
11
b000100100100 :
b000100100101 B
#3030
0'
01
#3035
1'
11
b000100100101 :
b000100100110 B
#3040
0'
01
#3045
1'
11
b000100100110 :
b000100100111 B
#3050
0'
01
#3055
1'
11
b000100100111 :
b000100101000 B
#3060
0'
01
#3065
1'
11
b000100101000 :
b000100101001 B
#3070
0'
01
#3075
1'
11
b000100101001 :
b000100101010 B
#3080
0'
01
#3085
1'
11
b000100101010 :
b000100101011 B
#3090
0'
01
#3095
1'
11
b000100101011 :
b000100101100 B
#3100
0'
01
#3105
1'
11
b000100101100 :
b000100101101 B
#3110
0'
01
#3115
1'
11
b000100101101 :
b000100101110 B
#3120
0'
01
#3125
1'
11
b000100101110 :
b000100101111 B
#3130
0'
01
#3135
1'
11
b000100101111 :
b000100110000 B
#3140
0'
01
#3145
1'
11
b000100110000 :
b000100110001 B
#3150
0'
01
#3155
1'
11
b000100110001 :
b000100110010 B
#3160
0'
01
#3165
1'
11
b000100110010 :
b000100110011 B
#3170
0'
01
#3175
1'
11
b000100110011 :
b000100110100 B
#3180
0'
01
#3185
1'
11
b000100110100 :
b000100110101 B
#3190
0'
01
#3195
1'
11
b000100110101 :
b000100110110 B
#3200
0'
01
#3205
1'
11
b000100110110 :
b000100110111 B
#3210
0'
01
#3215
1'
11
b000100110111 :
b000100111000 B
#3220
0'
01
#3225
1'
11
b000100111000 :
b000100111001 B
#3230
0'
01
#3235
1'
11
b000100111001 :
b000100111010 B
#3240
0'
01
#3245
1'
11
b000100111010 :
b000100111011 B
#3250
0'
01
#3255
1'
11
b000100111011 :
b000100111100 B
#3260
0'
01
#3265
1'
11
b000100111100 :
b000100111101 B
#3270
0'
01
#3275
1'
11
b000100111101 :
b000100111110 B
#3280
0'
01
#3285
1'
11
b000100111110 :
b000100111111 B
#3290
0'
01
#3295
1'
11
b000100111111 :
b000101000000 B
#3300
0'
01
#3305
1'
11
b000101000000 :
b000101000001 B
#3310
0'
01
#3315
1'
11
b000101000001 :
b000101000010 B
#3320
0'
01
#3325
1'
11
b000101000010 :
b000101000011 B
#3330
0'
01
#3335
1'
11
b000101000011 :
b000101000100 B
#3340
0'
01
#3345
1'
11
b000101000100 :
b000101000101 B
#3350
0'
01
#3355
1'
11
b000101000101 :
b000101000110 B
#3360
0'
01
#3365
1'
11
b000101000110 :
b000101000111 B
#3370
0'
01
#3375
1'
11
b000101000111 :
b000101001000 B
#3380
0'
01
#3385
1'
11
b000101001000 :
b000101001001 B
#3390
0'
01
#3395
1'
11
b000101001001 :
b000101001010 B
#3400
0'
01
#3405
1'
11
b000101001010 :
b000101001011 B
#3410
0'
01
#3415
1'
11
b000101001011 :
b000101001100 B
#3420
0'
01
#3425
1'
11
b000101001100 :
b000101001101 B
#3430
0'
01
#3435
1'
11
b000101001101 :
b000101001110 B
#3440
0'
01
#3445
1'
11
b000101001110 :
b000101001111 B
#3450
0'
01
#3455
1'
11
b000101001111 :
b000101010000 B
#3460
0'
01
#3465
1'
11
b000101010000 :
b000101010001 B
#3470
0'
01
#3475
1'
11
b000101010001 :
b000101010010 B
#3480
0'
01
#3485
1'
11
b000101010010 :
b000101010011 B
#3490
0'
01
#3495
1'
11
b000101010011 :
b000101010100 B
#3500
0'
01
#3505
1'
11
b000101010100 :
b000101010101 B
#3510
0'
01
#3515
1'
11
b000101010101 :
b000101010110 B
#3520
0'
01
#3525
1'
11
b000101010110 :
b000101010111 B
#3530
0'
01
#3535
1'
11
b000101010111 :
b000101011000 B
#3540
0'
01
#3545
1'
11
b000101011000 :
b000101011001 B
#3550
0'
01
#3555
1'
11
b000101011001 :
b000101011010 B
#3560
0'
01
#3565
1'
11
b000101011010 :
b000101011011 B
#3570
0'
01
#3575
1'
11
b000101011011 :
b000101011100 B
#3580
0'
01
#3585
1'
11
b000101011100 :
b000101011101 B
#3590
0'
01
#3595
1'
11
b000101011101 :
b000101011110 B
#3600
0'
01
#3605
1'
11
b000101011110 :
b000101011111 B
#3610
0'
01
#3615
1'
11
b000101011111 :
b000101100000 B
#3620
0'
01
#3625
1'
11
b000101100000 :
b000101100001 B
#3630
0'
01
#3635
1'
11
b000101100001 :
b000101100010 B
#3640
0'
01
#3645
1'
11
b000101100010 :
b000101100011 B
#3650
0'
01
#3655
1'
11
b000101100011 :
b000101100100 B
#3660
0'
01
#3665
1'
11
b000101100100 :
b000101100101 B
#3670
0'
01
#3675
1'
11
b000101100101 :
b000101100110 B
#3680
0'
01
#3685
1'
11
b000101100110 :
b000101100111 B
#3690
0'
01
#3695
1'
11
b000101100111 :
b000101101000 B
#3700
0'
01
#3705
1'
11
b000101101000 :
b000101101001 B
#3710
0'
01
